MPASM 5.87                           TEC.ASM   6-12-2022  19:47:29         PAGE  1


LOC  OBJECT CODE     LINE SOURCE TEXT
  VALUE

                      00001 
                      00002 
                      00003 
Error[129]  : Expected (END)
MPASM 5.87                           TEC.ASM   6-12-2022  19:47:29         PAGE  2


SYMBOL TABLE
  LABEL                             VALUE 

__16F887                          00000001

Errors   :     1
Warnings :     0 reported,     0 suppressed
Messages :     0 reported,     0 suppressed

